C:\Users\user\git\Lcbowebap\LCBOWebApp\src\main\java\sheridan\LiquourType.java
C:\Users\user\git\Lcbowebap\LCBOWebApp\src\main\java\sheridan\LiquourService.java
C:\Users\user\git\Lcbowebap\LCBOWebApp\src\main\java\sheridan\SelectLiquourServlet.java
